<?xml version="1.0" encoding="utf-8"?>
<!-- Generator: Adobe Illustrator 21.0.0, SVG Export Plug-In . SVG Version: 6.00 Build 0)  -->
<svg version="1.1" id="Layer_1" xmlns="http://www.w3.org/2000/svg" xmlns:xlink="http://www.w3.org/1999/xlink" x="0px" y="0px"
	 viewBox="0 0 500 230" enable-background="new 0 0 500 230" xml:space="preserve">
<g>
	<polygon fill="#197B30" points="476.905,188.479 446.006,122.408 407.832,150.771 425.329,188.479 476.905,188.479 	"/>
	<polygon fill="#197B30" points="420.184,67.004 410.005,45.208 358.251,45.208 387.096,106.82 420.184,67.004 	"/>
	<polygon fill="#197B30" points="295.511,224.019 442.386,45.208 493.986,45.208 347.088,224.019 295.511,224.019 	"/>
	<path fill="#636466" d="M167.065,52.798c-13.916-7.591-32.575-12.333-53.449-12.333c-53.765,0-96.463,32.259-105.951,84.443
		C6.717,129.336,6.4,134.08,6.4,138.824c0,26.883,14.233,53.132,48.39,53.132c20.487,0,39.166-1.256,49.089-21.725l-2.914,18.247
		h42.38L167.065,52.798L167.065,52.798z M117.727,80.948l-2.368,14.414c-5.837,37.356-29.963,59.275-42.858,59.275
		c-14.231,0-20.874-10.12-20.874-22.77c0-2.215,0.317-4.428,0.633-6.642c4.111-24.036,26.249-46.492,50.919-46.492
		C108.872,78.733,114.247,79.681,117.727,80.948L117.727,80.948z"/>
	<polygon fill="#636466" points="232.217,45.208 185.409,45.208 160.107,188.479 206.916,188.479 232.217,45.208 	"/>
	<path fill="#636466" d="M349.236,45.208c-2.846-1.265-11.218-2.53-15.963-2.53c-21.824,0-36.822,6.619-42.271,18.293l3.835-15.763
		h-45.858l-25.303,143.271h46.492l7.907-43.645c6.326-34.157,21.318-51.596,39.534-53.765c4.38-0.522,20.918-1.86,23.447-0.912
		L349.236,45.208L349.236,45.208z"/>
	<path fill="#197B30" d="M233.22,38.518L238.863,8c0,0-5.447,11.48-23.542,21.209c-16.256,8.74-28.874,9.311-28.874,9.311
		L233.22,38.518L233.22,38.518z"/>
</g>
</svg>
